INDEX VERSION 1.130+C:\sql\fsd60\SpringBoot\.metadata\.plugins\org.eclipse.jdt.core
3729947669.index
411227453.index
2641348593.index
3845193163.index
3483723689.index
151014203.index
1463565320.index
1365434087.index
3040837599.index
35075673.index
1562890697.index
3736767673.index
1418094048.index
3688169635.index
3882879514.index
4135958314.index
2408088272.index
4138326577.index
2675550383.index
1652247234.index
2264464874.index
2596683412.index
1897322686.index
3944947082.index
621159468.index
1908459295.index
2619570662.index
4109190334.index
3776895608.index
450101950.index
105917248.index
2731764719.index
3336722592.index
2305410218.index
2205283528.index
2507423472.index
325812656.index
1961815414.index
542153213.index
895354549.index
4148767095.index
1673256398.index
1956904976.index
900238144.index
1420091617.index
3996756938.index
2078940183.index
1199717665.index
1844967944.index
1207885105.index
352810362.index
1242277796.index
4021336276.index
382179559.index
1026815937.index
103378668.index
2581883899.index
797322840.index
1828026965.index
3644761064.index
2135714914.index
2066830214.index
2413382523.index
3405480348.index
4259073463.index
182301636.index
1067217951.index
301504623.index
3149012130.index
2546253669.index
2707110695.index
2840530734.index
3750545576.index
440652167.index
1946725198.index
3348520720.index
2885606711.index
4207690841.index
674573568.index
